[gd_scene load_steps=4 format=3 uid="uid://2judufevuwwk"]

[ext_resource type="Script" path="res://polygon_rigid_body.gd" id="1_lsi3c"]
[ext_resource type="Texture2D" uid="uid://7ktjasb1tw1g" path="res://photo_2024-05-11_11-57-52.jpg" id="2_t11wm"]
[ext_resource type="Texture2D" uid="uid://bh7vv30k4we5r" path="res://gold_seamless.webp" id="3_fd4c2"]

[node name="Asteroid" type="RigidBody2D"]
continuous_cd = 1
max_contacts_reported = 5
contact_monitor = true
script = ExtResource("1_lsi3c")
poly_threshold = 10.0

[node name="Polygon" type="Polygon2D" parent="."]
z_index = 1
texture_repeat = 2
position = Vector2(1, 0)
texture = ExtResource("2_t11wm")
texture_scale = Vector2(5, 5)
polygon = PackedVector2Array(-307, -138, -342.433, -183.784, -450, -78, -451.077, -76.9227, -452, -76, -453, -75, -455, -73, -456, -71, -461, -64, -462, -55, -464, -43, -393, 105, -191, 124, -191, -97)

[node name="PolygonOutline" type="Polygon2D" parent="."]
position = Vector2(1, 0)
color = Color(0, 0, 0, 1)

[node name="dig1" type="Polygon2D" parent="."]
visible = false
color = Color(0.329412, 1, 1, 0.713726)

[node name="dig2" type="Polygon2D" parent="."]
visible = false
color = Color(0.937255, 0.486275, 0.752941, 0.764706)

[node name="Treasure" type="Polygon2D" parent="."]
z_index = 3
texture_repeat = 2
texture = ExtResource("3_fd4c2")
texture_scale = Vector2(15, 15)
polygon = PackedVector2Array(865, 504, 827, 500, 800, 523, 780, 566, 801, 587, 833, 614, 872, 599, 904, 578, 900, 540)

[node name="TreasureOutline" type="Polygon2D" parent="."]
z_index = 2
color = Color(0.389433, 0.284818, 0, 1)

[connection signal="body_shape_entered" from="." to="." method="_on_body_shape_entered"]
