[gd_scene load_steps=4 format=3 uid="uid://dfon1wb6hpruw"]

[ext_resource type="Texture2D" uid="uid://c4f6lyre1mjeo" path="res://pe.png" id="1_c2a04"]
[ext_resource type="Script" path="res://AccPE.gd" id="1_yw52v"]

[sub_resource type="Gradient" id="Gradient_xka42"]
offsets = PackedFloat32Array(0, 0.506383, 0.740426, 1)
colors = PackedColorArray(0.87451, 0, 0, 1, 0.814558, 0.484515, 0.218668, 1, 0.862076, 0.765774, 0.255141, 1, 1, 1, 1, 1)

[node name="JetPE" type="CPUParticles2D"]
amount = 60
lifetime = 0.5
explosiveness = 0.1
randomness = 0.33
lifetime_randomness = 0.13
local_coords = true
texture = ExtResource("1_c2a04")
emission_shape = 1
emission_sphere_radius = 10.0
direction = Vector2(0, 1)
spread = 10.0
gravity = Vector2(0, 0)
initial_velocity_min = 21.28
initial_velocity_max = 163.12
scale_amount_min = 0.5
scale_amount_max = 2.0
color_initial_ramp = SubResource("Gradient_xka42")
script = ExtResource("1_yw52v")
